{
	"format_version": "1.8.0",
	"animations": {
		"animation.archen_fetus.sleep": {
			"loop": true,
			"bones": {
				"body": {
					"rotation": [-15, 0, 0],
					"position": [0, -1, 1]
				},
				"arm_right": {
					"rotation": [-65, -35, -20]
				},
				"arm_right2": {
					"rotation": [0, -60, 0]
				},
				"arm_right3": {
					"rotation": [0, 80, 0]
				},
				"neck": {
					"rotation": [16, 0, 0]
				},
				"head": {
					"rotation": [28.5, 0, 0]
				},
				"leg_right": {
					"rotation": [-75, 25, 0]
				},
				"leg_right2": {
					"rotation": [-40, -5, -5]
				},
				"foot_right": {
					"rotation": [85, 0, 0]
				},
				"tail": {
					"rotation": [-30, 0, 0]
				},
				"tail2": {
					"rotation": [-40, 0, 0]
				},
				"tail_feathers_front": {
					"rotation": [-30, 0, 0]
				},
				"leg_left": {
					"rotation": [-75, -25, 0]
				},
				"leg_left2": {
					"rotation": [-40, 5, 5]
				},
				"foot_left": {
					"rotation": [85, 0, 0]
				},
				"arm_left": {
					"rotation": [-65, 35, 20]
				},
				"arm_left2": {
					"rotation": [0, 60, 0]
				},
				"arm_left3": {
					"rotation": [0, -80, 0]
				}
			}
		}
	}
}