{
	"format_version": "1.8.0",
	"animations": {
		"animation.substitute_fetus.sleep": {
			"loop": true,
			"bones": {
				"body": {
					"position": [0, -2.2, 0]
				},
				"torso": {
					"rotation": [-5, 0, 0]
				},
				"head": {
					"rotation": [10, 0, 0]
				},
				"arm_right": {
					"rotation": [0, -20, 0]
				},
				"tail": {
					"rotation": [-40, 0, 0]
				},
				"tail2": {
					"rotation": [-30, 0, 0]
				},
				"leg_right": {
					"rotation": [0, -10, 0]
				},
				"arm_left": {
					"rotation": [0, 20, 0]
				},
				"leg_left": {
					"rotation": [0, 10, 0]
				}
			}
		}
	}
}