{
	"format_version": "1.8.0",
	"animations": {
		"animation.tirtouga_fetus.sleep": {
			"loop": true,
			"bones": {
				"body": {
					"rotation": [-70, 0, 0],
					"position": [0, 4.6, 1.7]
				},
				"fin_right_rot": {
					"rotation": [0, 0, 0]
				},
				"fin_right": {
					"rotation": [-15, 20, -75]
				},
				"fin_right2": {
					"rotation": [0, 0, -70]
				},
				"neck": {
					"rotation": [30, 0, 0]
				},
				"head": {
					"rotation": [35, 0, 0]
				},
				"jaw": {
					"rotation": [0, 0, 0]
				},
				"fin_left": {
					"rotation": [-15, -20, 75]
				},
				"fin_left2": {
					"rotation": [0, 0, 70]
				},
				"fin_back_right": {
					"rotation": [0, 0, -70]
				},
				"fin_back_right2": {
					"rotation": [0, 0, -55]
				},
				"fin_back_left": {
					"rotation": [0, 0, 70]
				},
				"fin_back_left2": {
					"rotation": [0, 0, 55]
				}
			}
		}
	}
}