{
  "asset_name": "black_tumblestone",
  "description": {
    "translate": "trim_material.cobblemon.black_tumblestone",
    "fallback": "Black Tumblestone",
    "color": "#7C897E"
  },
  "ingredient": "cobblemon:black_tumblestone",
  "item_model_index": 0.2633
}
