{
	"format_version": "1.10.0",
	"particle_effect": {
		"description": {
			"identifier": "cobblemon:pokeball_capture_hisui_firework_godrays",
			"basic_render_parameters": {
				"material": "particles_blend",
				"texture": "textures/blocks/wool_colored_white"
			}
		},
		"components": {
			"minecraft:emitter_rate_instant": {
				"num_particles": 10
			},
			"minecraft:emitter_lifetime_once": {
				"active_time": 0.2
			},
			"minecraft:emitter_shape_point": {
				"offset": [0, -1.65, 0]
			},
			"minecraft:particle_lifetime_expression": {
				"max_lifetime": 0.2
			},
			"minecraft:particle_initial_spin": {
				"rotation": "math.random(0,360) + math.floor(v.particle_random_2*3)*90",
				"rotation_rate": "math.random(-40,40)"
			},
			"minecraft:particle_initial_speed": 0,
			"minecraft:particle_motion_dynamic": {
				"rotation_drag_coefficient": 1
			},
			"minecraft:particle_appearance_billboard": {
				"size": ["((6/64) - v.particle_age/2) * 0.4", "(128/64 + v.particle_age*2) * 0.4"],
				"facing_camera_mode": "rotate_xyz",
				"uv": {
					"texture_width": 6,
					"texture_height": 128,
					"uv": [0, 0],
					"uv_size": [6, 128]
				}
			},
			"minecraft:particle_appearance_tinting": {
				"color": {
					"interpolant": "v.particle_age / v.particle_lifetime + v.particle_random_1*0.5",
					"gradient": {
						"0.0": "#FFF7FFA5",
						"1.0": "#00FFFFA5"
					}
				}
			}
		}
	}
}