{
  "placement": {
    "type": "minecraft:random_spread",
    "spacing": 20,
    "separation": 10,
    "salt": 1695780755,
    "spread_type": "triangular"
  },
  "structures": [
    {
      "structure": "cobblemon:desert_ruins_tower",
      "weight": 1
    },
    {
      "structure": "cobblemon:desert_ruins_house",
      "weight": 1
    }
  ]
}