﻿{
  "implemented": true,
  "name": "Blaziken",
  "nationalPokedexNumber": 257,
  "primaryType": "fire",
  "secondaryType": "fighting",
  "abilities": [
    "blaze",
    "h:speedboost"
  ],
  "baseStats": {
    "hp": 80,
    "attack": 120,
    "defence": 70,
    "special_attack": 110,
    "special_defence": 70,
    "speed": 80
  },
  "catchRate": 45,
  "maleRatio": 0.875,
  "shoulderMountable": false,
  "forms": [
    {
      "name": "Mega",
      "primaryType": "fire",
      "secondaryType": "fighting",
      "abilities": [
        "speedboost"
      ],
      "baseStats": {
        "hp": 80,
        "attack": 160,
        "defence": 80,
        "special_attack": 130,
        "special_defence": 80,
        "speed": 100
      },
      "catchRate": 45,
      "maleRatio": 0.875,
      "baseExperienceYield": 265,
      "baseFriendship": 50,
      "evYield": {
        "hp": 0,
        "attack": 3,
        "defence": 0,
        "special_attack": 0,
        "special_defence": 0,
        "speed": 0
      },
      "experienceGroup": "medium_slow",
      "eggCycles": 20,
      "eggGroups": [
        "field"
      ],
      "labels": [
        "gen6",
        "mega"
      ],
      "aspects": [
        "mega"
      ],
      "height": 19,
      "weight": 520,
      "cannotDynamax": false,
      "battleOnly": true
    }
  ],
  "baseExperienceYield": 265,
  "experienceGroup": "medium_slow",
  "eggCycles": 20,
  "eggGroups": [
    "field"
  ],
  "drops": {
    "amount": 5,
    "entries": [
      {
        "item": "minecraft:feather",
        "quantityRange": "0-3"
      },
      {
        "item": "minecraft:chicken"
      },
      {
        "item": "cobblemon:charcoal_stick",
        "percentage": 25.0
      }
    ]
  },
  "moves": [
    "1:bravebird",
    "1:doublekick",
    "1:ember",
    "1:featherdance",
    "1:firepunch",
    "1:flamethrower",
    "1:growl",
    "1:highjumpkick",
    "1:quickattack",
    "1:scratch",
    "9:flamecharge",
    "12:detect",
    "14:peck",
    "15:sandattack",
    "20:aerialace",
    "25:slash",
    "30:bounce",
    "35:focusenergy",
    "42:blazekick",
    "42:bulkup",
    "49:mirrormove",
    "49:reversal",
    "56:flareblitz",
    "57:skyuppercut",
    "63:bravebird",
    "tm:acrobatics",
    "tm:aerialace",
    "tm:agility",
    "tm:assurance",
    "tm:attract",
    "tm:aurasphere",
    "tm:batonpass",
    "tm:blastburn",
    "tm:blazekick",
    "tm:bodyslam",
    "tm:bounce",
    "tm:bravebird",
    "tm:brickbreak",
    "tm:bulkup",
    "tm:bulldoze",
    "tm:captivate",
    "tm:closecombat",
    "tm:coaching",
    "tm:confide",
    "tm:curse",
    "tm:cut",
    "tm:dig",
    "tm:doubleedge",
    "tm:doubleteam",
    "tm:earthquake",
    "tm:echoedvoice",
    "tm:endure",
    "tm:facade",
    "tm:featherdance",
    "tm:fireblast",
    "tm:firepledge",
    "tm:firepunch",
    "tm:firespin",
    "tm:flamecharge",
    "tm:flamethrower",
    "tm:flareblitz",
    "tm:fling",
    "tm:focusblast",
    "tm:focusenergy",
    "tm:focuspunch",
    "tm:frustration",
    "tm:gigaimpact",
    "tm:heatcrash",
    "tm:heatwave",
    "tm:helpinghand",
    "tm:hiddenpower",
    "tm:honeclaws",
    "tm:hyperbeam",
    "tm:incinerate",
    "tm:knockoff",
    "tm:lowkick",
    "tm:lowsweep",
    "tm:megakick",
    "tm:megapunch",
    "tm:mudslap",
    "tm:naturalgift",
    "tm:overheat",
    "tm:poisonjab",
    "tm:poweruppunch",
    "tm:protect",
    "tm:rest",
    "tm:return",
    "tm:revenge",
    "tm:reversal",
    "tm:roar",
    "tm:rockclimb",
    "tm:rockslide",
    "tm:rocksmash",
    "tm:rocktomb",
    "tm:round",
    "tm:scorchingsands",
    "tm:secretpower",
    "tm:shadowclaw",
    "tm:sleeptalk",
    "tm:snore",
    "tm:solarbeam",
    "tm:stoneedge",
    "tm:strength",
    "tm:substitute",
    "tm:sunnyday",
    "tm:superpower",
    "tm:swagger",
    "tm:swift",
    "tm:swordsdance",
    "tm:takedown",
    "tm:temperflare",
    "tm:terablast",
    "tm:thief",
    "tm:thunderpunch",
    "tm:toxic",
    "tm:upperhand",
    "tm:uproar",
    "tm:uturn",
    "tm:vacuumwave",
    "tm:willowisp",
    "tm:willowisp",
    "tm:workup",
    "tutor:blastburn",
    "tutor:blazekick",
    "tutor:bodyslam",
    "tutor:bounce",
    "tutor:coaching",
    "tutor:counter",
    "tutor:defog",
    "tutor:doubleedge",
    "tutor:dualchop",
    "tutor:dynamicpunch",
    "tutor:endure",
    "tutor:firepledge",
    "tutor:firepunch",
    "tutor:flareblitz",
    "tutor:focuspunch",
    "tutor:furycutter",
    "tutor:headbutt",
    "tutor:heatwave",
    "tutor:helpinghand",
    "tutor:highjumpkick",
    "tutor:knockoff",
    "tutor:laserfocus",
    "tutor:lastresort",
    "tutor:lowkick",
    "tutor:megakick",
    "tutor:megapunch",
    "tutor:mimic",
    "tutor:mirrormove",
    "tutor:mudslap",
    "tutor:rockslide",
    "tutor:roleplay",
    "tutor:scorchingsands",
    "tutor:seismictoss",
    "tutor:skyuppercut",
    "tutor:slash",
    "tutor:sleeptalk",
    "tutor:snore",
    "tutor:stoneedge",
    "tutor:substitute",
    "tutor:superpower",
    "tutor:swagger",
    "tutor:swift",
    "tutor:swordsdance",
    "tutor:thunderpunch",
    "tutor:vacuumwave"
  ],
  "labels": [
    "gen3"
  ],
  "pokedex": [
    "cobblemon.species.blaziken.desc"
  ],
  "preEvolution": "combusken",
  "evolutions": [],
  "baseScale": 1,
  "hitbox": {
    "width": 1.1,
    "height": 2.6,
    "fixed": false
  },
  "baseFriendship": 50,
  "evYield": {
    "hp": 0,
    "attack": 3,
    "defence": 0,
    "special_attack": 0,
    "special_defence": 0,
    "speed": 0
  },
  "height": 19,
  "weight": 520,
  "aspects": [],
  "cannotDynamax": false
}